^\\NAPIER-MAIL.NAPIER.AC.UK\STUDENTS\SCHOOL OF COMPUTING\USER DATA\40058660\MY PROFILE\DESKTOP\CPS_COURSEWORK\COURSEWORK_1\COURSEWORK_1\SOLUTION.CPP|\\NAPIER-MAIL.NAPIER.AC.UK\STUDENTS\SCHOOL OF COMPUTING\USER DATA\40058660\MY PROFILE\DESKTOP\CPS_COURSEWORK\COURSEWORK_1\COURSEWORK_1\THREADS.CPP
\\NAPIER-MAIL.NAPIER.AC.UK\STUDENTS\SCHOOL OF COMPUTING\USER DATA\40058660\MY PROFILE\DESKTOP\CPS_COURSEWORK\COURSEWORK_1\COURSEWORK_1\RELEASE\VC120.PDB
\\NAPIER-MAIL.NAPIER.AC.UK\STUDENTS\SCHOOL OF COMPUTING\USER DATA\40058660\MY PROFILE\DESKTOP\CPS_COURSEWORK\COURSEWORK_1\COURSEWORK_1\RELEASE\THREADS.OBJ
\\NAPIER-MAIL.NAPIER.AC.UK\STUDENTS\SCHOOL OF COMPUTING\USER DATA\40058660\MY PROFILE\DESKTOP\CPS_COURSEWORK\COURSEWORK_1\COURSEWORK_1\RELEASE\SOLUTION.OBJ
^\\NAPIER-MAIL.NAPIER.AC.UK\STUDENTS\SCHOOL OF COMPUTING\USER DATA\40058660\MY PROFILE\DESKTOP\CPS_COURSEWORK\COURSEWORK_1\COURSEWORK_1\MAIN.CPP|\\NAPIER-MAIL.NAPIER.AC.UK\STUDENTS\SCHOOL OF COMPUTING\USER DATA\40058660\MY PROFILE\DESKTOP\CPS_COURSEWORK\COURSEWORK_1\COURSEWORK_1\SOLUTION.CPP|\\NAPIER-MAIL.NAPIER.AC.UK\STUDENTS\SCHOOL OF COMPUTING\USER DATA\40058660\MY PROFILE\DESKTOP\CPS_COURSEWORK\COURSEWORK_1\COURSEWORK_1\THREADS.CPP
\\NAPIER-MAIL.NAPIER.AC.UK\STUDENTS\SCHOOL OF COMPUTING\USER DATA\40058660\MY PROFILE\DESKTOP\CPS_COURSEWORK\COURSEWORK_1\COURSEWORK_1\RELEASE\VC120.PDB
\\NAPIER-MAIL.NAPIER.AC.UK\STUDENTS\SCHOOL OF COMPUTING\USER DATA\40058660\MY PROFILE\DESKTOP\CPS_COURSEWORK\COURSEWORK_1\COURSEWORK_1\RELEASE\THREADS.OBJ
\\NAPIER-MAIL.NAPIER.AC.UK\STUDENTS\SCHOOL OF COMPUTING\USER DATA\40058660\MY PROFILE\DESKTOP\CPS_COURSEWORK\COURSEWORK_1\COURSEWORK_1\RELEASE\SOLUTION.OBJ
^\\NAPIER-MAIL.NAPIER.AC.UK\STUDENTS\SCHOOL OF COMPUTING\USER DATA\40058660\MY PROFILE\DESKTOP\CPS_COURSEWORK\COURSEWORK_1\COURSEWORK_1\THREADS.CPP
\\NAPIER-MAIL.NAPIER.AC.UK\STUDENTS\SCHOOL OF COMPUTING\USER DATA\40058660\MY PROFILE\DESKTOP\CPS_COURSEWORK\COURSEWORK_1\COURSEWORK_1\RELEASE\THREADS.OBJ
^\\NAPIER-MAIL.NAPIER.AC.UK\STUDENTS\SCHOOL OF COMPUTING\USER DATA\40058660\MY PROFILE\DESKTOP\CPS_COURSEWORK\COURSEWORK_1\COURSEWORK_1\SIMD128.CPP|\\NAPIER-MAIL.NAPIER.AC.UK\STUDENTS\SCHOOL OF COMPUTING\USER DATA\40058660\MY PROFILE\DESKTOP\CPS_COURSEWORK\COURSEWORK_1\COURSEWORK_1\SOLUTION.CPP
\\NAPIER-MAIL.NAPIER.AC.UK\STUDENTS\SCHOOL OF COMPUTING\USER DATA\40058660\MY PROFILE\DESKTOP\CPS_COURSEWORK\COURSEWORK_1\COURSEWORK_1\RELEASE\VC120.PDB
\\NAPIER-MAIL.NAPIER.AC.UK\STUDENTS\SCHOOL OF COMPUTING\USER DATA\40058660\MY PROFILE\DESKTOP\CPS_COURSEWORK\COURSEWORK_1\COURSEWORK_1\RELEASE\SOLUTION.OBJ
\\NAPIER-MAIL.NAPIER.AC.UK\STUDENTS\SCHOOL OF COMPUTING\USER DATA\40058660\MY PROFILE\DESKTOP\CPS_COURSEWORK\COURSEWORK_1\COURSEWORK_1\RELEASE\SIMD128.OBJ
^\\NAPIER-MAIL.NAPIER.AC.UK\STUDENTS\SCHOOL OF COMPUTING\USER DATA\40058660\MY PROFILE\DESKTOP\CPS_COURSEWORK\COURSEWORK_1\COURSEWORK_1\SIMD128.CPP
\\NAPIER-MAIL.NAPIER.AC.UK\STUDENTS\SCHOOL OF COMPUTING\USER DATA\40058660\MY PROFILE\DESKTOP\CPS_COURSEWORK\COURSEWORK_1\COURSEWORK_1\RELEASE\VC120.PDB
^\\NAPIER-MAIL.NAPIER.AC.UK\STUDENTS\SCHOOL OF COMPUTING\USER DATA\40058660\MY PROFILE\DESKTOP\CPS_COURSEWORK\COURSEWORK_1\COURSEWORK_1\ORIGINAL.CPP|\\NAPIER-MAIL.NAPIER.AC.UK\STUDENTS\SCHOOL OF COMPUTING\USER DATA\40058660\MY PROFILE\DESKTOP\CPS_COURSEWORK\COURSEWORK_1\COURSEWORK_1\SOLUTION.CPP
\\NAPIER-MAIL.NAPIER.AC.UK\STUDENTS\SCHOOL OF COMPUTING\USER DATA\40058660\MY PROFILE\DESKTOP\CPS_COURSEWORK\COURSEWORK_1\COURSEWORK_1\RELEASE\VC120.PDB
\\NAPIER-MAIL.NAPIER.AC.UK\STUDENTS\SCHOOL OF COMPUTING\USER DATA\40058660\MY PROFILE\DESKTOP\CPS_COURSEWORK\COURSEWORK_1\COURSEWORK_1\RELEASE\SOLUTION.OBJ
\\NAPIER-MAIL.NAPIER.AC.UK\STUDENTS\SCHOOL OF COMPUTING\USER DATA\40058660\MY PROFILE\DESKTOP\CPS_COURSEWORK\COURSEWORK_1\COURSEWORK_1\RELEASE\ORIGINAL.OBJ
^\\NAPIER-MAIL.NAPIER.AC.UK\STUDENTS\SCHOOL OF COMPUTING\USER DATA\40058660\MY PROFILE\DESKTOP\CPS_COURSEWORK\COURSEWORK_1\COURSEWORK_1\SOLUTION.CPP
\\NAPIER-MAIL.NAPIER.AC.UK\STUDENTS\SCHOOL OF COMPUTING\USER DATA\40058660\MY PROFILE\DESKTOP\CPS_COURSEWORK\COURSEWORK_1\COURSEWORK_1\RELEASE\VC120.PDB
^\\NAPIER-MAIL.NAPIER.AC.UK\STUDENTS\SCHOOL OF COMPUTING\USER DATA\40058660\MY PROFILE\DESKTOP\CPS_COURSEWORK\COURSEWORK_1\COURSEWORK_1\OMPSOLUTION.CPP|\\NAPIER-MAIL.NAPIER.AC.UK\STUDENTS\SCHOOL OF COMPUTING\USER DATA\40058660\MY PROFILE\DESKTOP\CPS_COURSEWORK\COURSEWORK_1\COURSEWORK_1\ORIGINAL.CPP
^\\NAPIER-MAIL.NAPIER.AC.UK\STUDENTS\SCHOOL OF COMPUTING\USER DATA\40058660\MY PROFILE\DESKTOP\CPS_COURSEWORK\COURSEWORK_1\COURSEWORK_1\ORIGINAL.CPP
\\NAPIER-MAIL.NAPIER.AC.UK\STUDENTS\SCHOOL OF COMPUTING\USER DATA\40058660\MY PROFILE\DESKTOP\CPS_COURSEWORK\COURSEWORK_1\COURSEWORK_1\RELEASE\ORIGINAL.OBJ
^\\NAPIER-MAIL.NAPIER.AC.UK\STUDENTS\SCHOOL OF COMPUTING\USER DATA\40058660\MY PROFILE\DESKTOP\CPS_COURSEWORK\COURSEWORK_1\COURSEWORK_1\OMPSOLUTION.CPP|\\NAPIER-MAIL.NAPIER.AC.UK\STUDENTS\SCHOOL OF COMPUTING\USER DATA\40058660\MY PROFILE\DESKTOP\CPS_COURSEWORK\COURSEWORK_1\COURSEWORK_1\SIMD256.CPP
\\NAPIER-MAIL.NAPIER.AC.UK\STUDENTS\SCHOOL OF COMPUTING\USER DATA\40058660\MY PROFILE\DESKTOP\CPS_COURSEWORK\COURSEWORK_1\COURSEWORK_1\RELEASE\VC120.PDB
\\NAPIER-MAIL.NAPIER.AC.UK\STUDENTS\SCHOOL OF COMPUTING\USER DATA\40058660\MY PROFILE\DESKTOP\CPS_COURSEWORK\COURSEWORK_1\COURSEWORK_1\RELEASE\SIMD256.OBJ
\\NAPIER-MAIL.NAPIER.AC.UK\STUDENTS\SCHOOL OF COMPUTING\USER DATA\40058660\MY PROFILE\DESKTOP\CPS_COURSEWORK\COURSEWORK_1\COURSEWORK_1\RELEASE\OMPSOLUTION.OBJ
^\\NAPIER-MAIL.NAPIER.AC.UK\STUDENTS\SCHOOL OF COMPUTING\USER DATA\40058660\MY PROFILE\DESKTOP\CPS_COURSEWORK\COURSEWORK_1\COURSEWORK_1\OMPSOLUTION.CPP
\\NAPIER-MAIL.NAPIER.AC.UK\STUDENTS\SCHOOL OF COMPUTING\USER DATA\40058660\MY PROFILE\DESKTOP\CPS_COURSEWORK\COURSEWORK_1\COURSEWORK_1\RELEASE\VC120.PDB
^\\NAPIER-MAIL.NAPIER.AC.UK\STUDENTS\SCHOOL OF COMPUTING\USER DATA\40058660\MY PROFILE\DESKTOP\CPS_COURSEWORK\COURSEWORK_1\COURSEWORK_1\SIMD256.CPP
\\NAPIER-MAIL.NAPIER.AC.UK\STUDENTS\SCHOOL OF COMPUTING\USER DATA\40058660\MY PROFILE\DESKTOP\CPS_COURSEWORK\COURSEWORK_1\COURSEWORK_1\RELEASE\VC120.PDB
