^C:\USERS\40058660\DESKTOP\CPS_COURSEWORK\COURSEWORK_1\COURSEWORK_1\RELEASE\MAIN.OBJ
/OUT:"C:\USERS\40058660\DESKTOP\CPS_COURSEWORK\COURSEWORK_1\RELEASE\COURSEWORK_1.EXE" /INCREMENTAL:NO /NOLOGO kernel32.lib user32.lib gdi32.lib winspool.lib comdlg32.lib advapi32.lib shell32.lib ole32.lib oleaut32.lib uuid.lib odbc32.lib odbccp32.lib /MANIFEST /MANIFESTUAC:"level='asInvoker' uiAccess='false'" /manifest:embed /DEBUG /PDB:"C:\USERS\40058660\DESKTOP\CPS_COURSEWORK\COURSEWORK_1\RELEASE\COURSEWORK_1.PDB" /SUBSYSTEM:CONSOLE /OPT:REF /OPT:ICF /LTCG /TLBID:1 /DYNAMICBASE /NXCOMPAT /IMPLIB:"C:\USERS\40058660\DESKTOP\CPS_COURSEWORK\COURSEWORK_1\RELEASE\COURSEWORK_1.LIB" /MACHINE:X86 /SAFESEH RELEASE\MAIN.OBJ
^C:\USERS\40058660\DESKTOP\CPS_COURSEWORK\COURSEWORK_1\COURSEWORK_1\RELEASE\MAIN.OBJ|C:\USERS\40058660\DESKTOP\CPS_COURSEWORK\COURSEWORK_1\COURSEWORK_1\RELEASE\SOLUTION.OBJ
/OUT:"C:\USERS\40058660\DESKTOP\CPS_COURSEWORK\COURSEWORK_1\RELEASE\COURSEWORK_1.EXE" /INCREMENTAL:NO /NOLOGO kernel32.lib user32.lib gdi32.lib winspool.lib comdlg32.lib advapi32.lib shell32.lib ole32.lib oleaut32.lib uuid.lib odbc32.lib odbccp32.lib /MANIFEST /MANIFESTUAC:"level='asInvoker' uiAccess='false'" /manifest:embed /DEBUG /PDB:"C:\USERS\40058660\DESKTOP\CPS_COURSEWORK\COURSEWORK_1\RELEASE\COURSEWORK_1.PDB" /SUBSYSTEM:CONSOLE /OPT:REF /OPT:ICF /LTCG /TLBID:1 /DYNAMICBASE /NXCOMPAT /IMPLIB:"C:\USERS\40058660\DESKTOP\CPS_COURSEWORK\COURSEWORK_1\RELEASE\COURSEWORK_1.LIB" /MACHINE:X86 /SAFESEH RELEASE\MAIN.OBJRELEASE\SOLUTION.OBJ
^\\NAPIER-MAIL.NAPIER.AC.UK\STUDENTS\SCHOOL OF COMPUTING\USER DATA\40058660\MY PROFILE\DESKTOP\CPS_COURSEWORK\COURSEWORK_1\COURSEWORK_1\RELEASE\SOLUTION.OBJ
/OUT:"\\NAPIER-MAIL.NAPIER.AC.UK\STUDENTS\SCHOOL OF COMPUTING\USER DATA\40058660\MY PROFILE\DESKTOP\CPS_COURSEWORK\COURSEWORK_1\RELEASE\COURSEWORK_1.EXE" /INCREMENTAL:NO /NOLOGO kernel32.lib user32.lib gdi32.lib winspool.lib comdlg32.lib advapi32.lib shell32.lib ole32.lib oleaut32.lib uuid.lib odbc32.lib odbccp32.lib /MANIFEST /MANIFESTUAC:"level='asInvoker' uiAccess='false'" /manifest:embed /DEBUG /PDB:"\\NAPIER-MAIL.NAPIER.AC.UK\STUDENTS\SCHOOL OF COMPUTING\USER DATA\40058660\MY PROFILE\DESKTOP\CPS_COURSEWORK\COURSEWORK_1\RELEASE\COURSEWORK_1.PDB" /SUBSYSTEM:CONSOLE /OPT:REF /OPT:ICF /LTCG /TLBID:1 /DYNAMICBASE /NXCOMPAT /IMPLIB:"\\NAPIER-MAIL.NAPIER.AC.UK\STUDENTS\SCHOOL OF COMPUTING\USER DATA\40058660\MY PROFILE\DESKTOP\CPS_COURSEWORK\COURSEWORK_1\RELEASE\COURSEWORK_1.LIB" /MACHINE:X86 /SAFESEH RELEASE\SOLUTION.OBJ
^\\NAPIER-MAIL.NAPIER.AC.UK\STUDENTS\SCHOOL OF COMPUTING\USER DATA\40058660\MY PROFILE\DESKTOP\CPS_COURSEWORK\COURSEWORK_1\COURSEWORK_1\RELEASE\OMPSOLUTION.OBJ|\\NAPIER-MAIL.NAPIER.AC.UK\STUDENTS\SCHOOL OF COMPUTING\USER DATA\40058660\MY PROFILE\DESKTOP\CPS_COURSEWORK\COURSEWORK_1\COURSEWORK_1\RELEASE\ORIGINAL.OBJ|\\NAPIER-MAIL.NAPIER.AC.UK\STUDENTS\SCHOOL OF COMPUTING\USER DATA\40058660\MY PROFILE\DESKTOP\CPS_COURSEWORK\COURSEWORK_1\COURSEWORK_1\RELEASE\SIMD128.OBJ|\\NAPIER-MAIL.NAPIER.AC.UK\STUDENTS\SCHOOL OF COMPUTING\USER DATA\40058660\MY PROFILE\DESKTOP\CPS_COURSEWORK\COURSEWORK_1\COURSEWORK_1\RELEASE\SOLUTION.OBJ
/OUT:"\\NAPIER-MAIL.NAPIER.AC.UK\STUDENTS\SCHOOL OF COMPUTING\USER DATA\40058660\MY PROFILE\DESKTOP\CPS_COURSEWORK\COURSEWORK_1\RELEASE\COURSEWORK_1.EXE" /INCREMENTAL:NO /NOLOGO kernel32.lib user32.lib gdi32.lib winspool.lib comdlg32.lib advapi32.lib shell32.lib ole32.lib oleaut32.lib uuid.lib odbc32.lib odbccp32.lib /MANIFEST /MANIFESTUAC:"level='asInvoker' uiAccess='false'" /manifest:embed /DEBUG /PDB:"\\NAPIER-MAIL.NAPIER.AC.UK\STUDENTS\SCHOOL OF COMPUTING\USER DATA\40058660\MY PROFILE\DESKTOP\CPS_COURSEWORK\COURSEWORK_1\RELEASE\COURSEWORK_1.PDB" /SUBSYSTEM:CONSOLE /OPT:REF /OPT:ICF /LTCG /TLBID:1 /DYNAMICBASE /NXCOMPAT /IMPLIB:"\\NAPIER-MAIL.NAPIER.AC.UK\STUDENTS\SCHOOL OF COMPUTING\USER DATA\40058660\MY PROFILE\DESKTOP\CPS_COURSEWORK\COURSEWORK_1\RELEASE\COURSEWORK_1.LIB" /MACHINE:X86 /SAFESEH RELEASE\OMPSOLUTION.OBJRELEASE\ORIGINAL.OBJRELEASE\SIMD128.OBJRELEASE\SOLUTION.OBJ
