^C:\USERS\ADMINISTRATOR\DOCUMENTS\VISUAL STUDIO 2013\PROJECTS\COURSEWORK_1\ORIGINAL\ORIGINAL.CPP
/c /ZI /nologo /W3 /WX- /sdl /Od /Oy- /D WIN32 /D _DEBUG /D _CONSOLE /D _LIB /D _UNICODE /D UNICODE /Gm /EHsc /RTC1 /MDd /GS /fp:precise /Zc:wchar_t /Zc:forScope /Fo"DEBUG\\" /Fd"DEBUG\VC120.PDB" /Gd /TP /analyze- C:\USERS\ADMINISTRATOR\DOCUMENTS\VISUAL STUDIO 2013\PROJECTS\COURSEWORK_1\ORIGINAL\ORIGINAL.CPP
^C:\USERS\40058660\DESKTOP\CPS_COURSEWORK\COURSEWORK_1\ORIGINAL\ORIGINAL.CPP
/c /ZI /nologo /W3 /WX- /sdl /Od /Oy- /D WIN32 /D _DEBUG /D _CONSOLE /D _LIB /D _UNICODE /D UNICODE /Gm /EHsc /RTC1 /MDd /GS /fp:precise /Zc:wchar_t /Zc:forScope /Fo"DEBUG\\" /Fd"DEBUG\VC120.PDB" /Gd /TP /analyze- C:\USERS\40058660\DESKTOP\CPS_COURSEWORK\COURSEWORK_1\ORIGINAL\ORIGINAL.CPP
^C:\USERS\40058660\DESKTOP\CPS_COURSEWORK\COURSEWORK_1\ORIGINAL\HYBRID.CPP
/c /ZI /nologo /W3 /WX- /sdl /Od /Oy- /D WIN32 /D _DEBUG /D _CONSOLE /D _LIB /D _UNICODE /D UNICODE /Gm /EHsc /RTC1 /MDd /GS /fp:precise /Zc:wchar_t /Zc:forScope /Fo"DEBUG\\" /Fd"DEBUG\VC120.PDB" /Gd /TP /analyze- C:\USERS\40058660\DESKTOP\CPS_COURSEWORK\COURSEWORK_1\ORIGINAL\HYBRID.CPP
^C:\USERS\40058660\DESKTOP\CPS_COURSEWORK\COURSEWORK_1\ORIGINAL\OMP.CPP
/c /ZI /nologo /W3 /WX- /sdl /Od /Oy- /D WIN32 /D _DEBUG /D _CONSOLE /D _LIB /D _UNICODE /D UNICODE /Gm /EHsc /RTC1 /MDd /GS /fp:precise /Zc:wchar_t /Zc:forScope /Fo"DEBUG\\" /Fd"DEBUG\VC120.PDB" /Gd /TP /analyze- C:\USERS\40058660\DESKTOP\CPS_COURSEWORK\COURSEWORK_1\ORIGINAL\OMP.CPP
^\\NAPIER-MAIL.NAPIER.AC.UK\STUDENTS\SCHOOL OF COMPUTING\USER DATA\40058660\MY PROFILE\DESKTOP\CPS_COURSEWORK\COURSEWORK_1\ORIGINAL\HYBRID.CPP
/c /ZI /nologo /W3 /WX- /sdl /Od /Oy- /D WIN32 /D _DEBUG /D _CONSOLE /D _LIB /D _UNICODE /D UNICODE /Gm /EHsc /RTC1 /MDd /GS /fp:precise /Zc:wchar_t /Zc:forScope /Fo"DEBUG\\" /Fd"DEBUG\VC120.PDB" /Gd /TP /analyze- \\NAPIER-MAIL.NAPIER.AC.UK\STUDENTS\SCHOOL OF COMPUTING\USER DATA\40058660\MY PROFILE\DESKTOP\CPS_COURSEWORK\COURSEWORK_1\ORIGINAL\HYBRID.CPP
^\\NAPIER-MAIL.NAPIER.AC.UK\STUDENTS\SCHOOL OF COMPUTING\USER DATA\40058660\MY PROFILE\DESKTOP\CPS_COURSEWORK\COURSEWORK_1\ORIGINAL\OMP.CPP
/c /ZI /nologo /W3 /WX- /sdl /Od /Oy- /D WIN32 /D _DEBUG /D _CONSOLE /D _LIB /D _UNICODE /D UNICODE /Gm /EHsc /RTC1 /MDd /GS /fp:precise /Zc:wchar_t /Zc:forScope /Fo"DEBUG\\" /Fd"DEBUG\VC120.PDB" /Gd /TP /analyze- \\NAPIER-MAIL.NAPIER.AC.UK\STUDENTS\SCHOOL OF COMPUTING\USER DATA\40058660\MY PROFILE\DESKTOP\CPS_COURSEWORK\COURSEWORK_1\ORIGINAL\OMP.CPP
^\\NAPIER-MAIL.NAPIER.AC.UK\STUDENTS\SCHOOL OF COMPUTING\USER DATA\40058660\MY PROFILE\DESKTOP\CPS_COURSEWORK\COURSEWORK_1\ORIGINAL\ORIGINAL.CPP
/c /ZI /nologo /W3 /WX- /sdl /Od /Oy- /D WIN32 /D _DEBUG /D _CONSOLE /D _LIB /D _UNICODE /D UNICODE /Gm /EHsc /RTC1 /MDd /GS /fp:precise /Zc:wchar_t /Zc:forScope /Fo"DEBUG\\" /Fd"DEBUG\VC120.PDB" /Gd /TP /analyze- \\NAPIER-MAIL.NAPIER.AC.UK\STUDENTS\SCHOOL OF COMPUTING\USER DATA\40058660\MY PROFILE\DESKTOP\CPS_COURSEWORK\COURSEWORK_1\ORIGINAL\ORIGINAL.CPP
^\\NAPIER-MAIL.NAPIER.AC.UK\STUDENTS\SCHOOL OF COMPUTING\USER DATA\40058660\MY PROFILE\DESKTOP\CPS_COURSEWORK\COURSEWORK_1\COURSEWORK_1\MAIN.CPP
/c /ZI /nologo /W3 /WX- /sdl /Od /Oy- /D WIN32 /D _DEBUG /D _CONSOLE /D _LIB /D _UNICODE /D UNICODE /Gm /EHsc /RTC1 /MDd /GS /fp:precise /Zc:wchar_t /Zc:forScope /Fo"DEBUG\\" /Fd"DEBUG\VC120.PDB" /Gd /TP /analyze- \\NAPIER-MAIL.NAPIER.AC.UK\STUDENTS\SCHOOL OF COMPUTING\USER DATA\40058660\MY PROFILE\DESKTOP\CPS_COURSEWORK\COURSEWORK_1\COURSEWORK_1\MAIN.CPP
^\\NAPIER-MAIL.NAPIER.AC.UK\STUDENTS\SCHOOL OF COMPUTING\USER DATA\40058660\MY PROFILE\DESKTOP\CPS_COURSEWORK\COURSEWORK_1\COURSEWORK_1\THREADS.CPP
/c /ZI /nologo /W3 /WX- /sdl /Od /Oy- /D WIN32 /D _DEBUG /D _CONSOLE /D _LIB /D _UNICODE /D UNICODE /Gm /EHsc /RTC1 /MDd /GS /fp:precise /Zc:wchar_t /Zc:forScope /Fo"DEBUG\\" /Fd"DEBUG\VC120.PDB" /Gd /TP /analyze- \\NAPIER-MAIL.NAPIER.AC.UK\STUDENTS\SCHOOL OF COMPUTING\USER DATA\40058660\MY PROFILE\DESKTOP\CPS_COURSEWORK\COURSEWORK_1\COURSEWORK_1\THREADS.CPP
