^C:\USERS\ADMINISTRATOR\DOCUMENTS\VISUAL STUDIO 2013\PROJECTS\COURSEWORK_1\ORIGINAL\DEBUG\ORIGINAL.OBJ
/OUT:"C:\USERS\ADMINISTRATOR\DOCUMENTS\VISUAL STUDIO 2013\PROJECTS\COURSEWORK_1\DEBUG\ORIGINAL.EXE" /INCREMENTAL /NOLOGO kernel32.lib user32.lib gdi32.lib winspool.lib comdlg32.lib advapi32.lib shell32.lib ole32.lib oleaut32.lib uuid.lib odbc32.lib odbccp32.lib /MANIFEST /MANIFESTUAC:"level='asInvoker' uiAccess='false'" /manifest:embed /DEBUG /PDB:"C:\USERS\ADMINISTRATOR\DOCUMENTS\VISUAL STUDIO 2013\PROJECTS\COURSEWORK_1\DEBUG\ORIGINAL.PDB" /SUBSYSTEM:CONSOLE /TLBID:1 /DYNAMICBASE /NXCOMPAT /IMPLIB:"C:\USERS\ADMINISTRATOR\DOCUMENTS\VISUAL STUDIO 2013\PROJECTS\COURSEWORK_1\DEBUG\ORIGINAL.LIB" /MACHINE:X86 DEBUG\ORIGINAL.OBJ
^C:\USERS\40058660\DESKTOP\CPS_COURSEWORK\COURSEWORK_1\ORIGINAL\DEBUG\ORIGINAL.OBJ
/OUT:"C:\USERS\40058660\DESKTOP\CPS_COURSEWORK\COURSEWORK_1\DEBUG\ORIGINAL.EXE" /INCREMENTAL /NOLOGO kernel32.lib user32.lib gdi32.lib winspool.lib comdlg32.lib advapi32.lib shell32.lib ole32.lib oleaut32.lib uuid.lib odbc32.lib odbccp32.lib /MANIFEST /MANIFESTUAC:"level='asInvoker' uiAccess='false'" /manifest:embed /DEBUG /PDB:"C:\USERS\40058660\DESKTOP\CPS_COURSEWORK\COURSEWORK_1\DEBUG\ORIGINAL.PDB" /SUBSYSTEM:CONSOLE /TLBID:1 /DYNAMICBASE /NXCOMPAT /IMPLIB:"C:\USERS\40058660\DESKTOP\CPS_COURSEWORK\COURSEWORK_1\DEBUG\ORIGINAL.LIB" /MACHINE:X86 DEBUG\ORIGINAL.OBJ
^\\NAPIER-MAIL.NAPIER.AC.UK\STUDENTS\SCHOOL OF COMPUTING\USER DATA\40058660\MY PROFILE\DESKTOP\CPS_COURSEWORK\COURSEWORK_1\ORIGINAL\DEBUG\HYBRID.OBJ|\\NAPIER-MAIL.NAPIER.AC.UK\STUDENTS\SCHOOL OF COMPUTING\USER DATA\40058660\MY PROFILE\DESKTOP\CPS_COURSEWORK\COURSEWORK_1\ORIGINAL\DEBUG\OMP.OBJ|\\NAPIER-MAIL.NAPIER.AC.UK\STUDENTS\SCHOOL OF COMPUTING\USER DATA\40058660\MY PROFILE\DESKTOP\CPS_COURSEWORK\COURSEWORK_1\ORIGINAL\DEBUG\ORIGINAL.OBJ
/OUT:"\\NAPIER-MAIL.NAPIER.AC.UK\STUDENTS\SCHOOL OF COMPUTING\USER DATA\40058660\MY PROFILE\DESKTOP\CPS_COURSEWORK\COURSEWORK_1\DEBUG\ORIGINAL.EXE" /INCREMENTAL /NOLOGO kernel32.lib user32.lib gdi32.lib winspool.lib comdlg32.lib advapi32.lib shell32.lib ole32.lib oleaut32.lib uuid.lib odbc32.lib odbccp32.lib /MANIFEST /MANIFESTUAC:"level='asInvoker' uiAccess='false'" /manifest:embed /DEBUG /PDB:"\\NAPIER-MAIL.NAPIER.AC.UK\STUDENTS\SCHOOL OF COMPUTING\USER DATA\40058660\MY PROFILE\DESKTOP\CPS_COURSEWORK\COURSEWORK_1\DEBUG\ORIGINAL.PDB" /SUBSYSTEM:CONSOLE /TLBID:1 /DYNAMICBASE /NXCOMPAT /IMPLIB:"\\NAPIER-MAIL.NAPIER.AC.UK\STUDENTS\SCHOOL OF COMPUTING\USER DATA\40058660\MY PROFILE\DESKTOP\CPS_COURSEWORK\COURSEWORK_1\DEBUG\ORIGINAL.LIB" /MACHINE:X86 DEBUG\HYBRID.OBJDEBUG\OMP.OBJDEBUG\ORIGINAL.OBJ
^C:\USERS\40058660\DESKTOP\CPS_COURSEWORK\COURSEWORK_1\ORIGINAL\DEBUG\OMP.OBJ|C:\USERS\40058660\DESKTOP\CPS_COURSEWORK\COURSEWORK_1\ORIGINAL\DEBUG\ORIGINAL.OBJ
/OUT:"C:\USERS\40058660\DESKTOP\CPS_COURSEWORK\COURSEWORK_1\DEBUG\ORIGINAL.EXE" /INCREMENTAL /NOLOGO kernel32.lib user32.lib gdi32.lib winspool.lib comdlg32.lib advapi32.lib shell32.lib ole32.lib oleaut32.lib uuid.lib odbc32.lib odbccp32.lib /MANIFEST /MANIFESTUAC:"level='asInvoker' uiAccess='false'" /manifest:embed /DEBUG /PDB:"C:\USERS\40058660\DESKTOP\CPS_COURSEWORK\COURSEWORK_1\DEBUG\ORIGINAL.PDB" /SUBSYSTEM:CONSOLE /TLBID:1 /DYNAMICBASE /NXCOMPAT /IMPLIB:"C:\USERS\40058660\DESKTOP\CPS_COURSEWORK\COURSEWORK_1\DEBUG\ORIGINAL.LIB" /MACHINE:X86 DEBUG\OMP.OBJDEBUG\ORIGINAL.OBJ
